-107.75,28.856,-20.423
-107.75,28.856,-20.423
-101.93,43.509,15.113
-101.93,43.509,15.113
-109.99,10.989,12.512
-109.99,10.989,12.512
-112.64,-4.1386,-24.387
-112.64,-4.1386,-24.387
-108.33,11.829,47.205
-108.33,11.829,47.205
-99.048,17.089,80.799
-99.048,17.089,80.799
-102.94,-18.655,78.479
-102.94,-18.655,78.479
-110.83,-22.056,44.568
-110.83,-22.056,44.568
-83.909,76.645,51.296
-83.909,76.645,51.296
-87.18,51.997,82.379
-87.18,51.997,82.379
-68.279,49.687,111.64
-68.279,49.687,111.64
-99.672,44.471,48.908
-99.672,44.471,48.908
-80.483,15.639,111.32
-80.483,15.639,111.32
-51.974,12.425,134.09
-51.974,12.425,134.09
-54.683,-22.281,134.02
-54.683,-22.281,134.02
-84.22,-19.38,110.34
-84.22,-19.38,110.34
-60.149,101.99,56.952
-60.149,101.99,56.952
-28.867,114.69,61.04
-28.867,114.69,61.04
-29.546,100.79,91.544
-29.546,100.79,91.544
-64.054,84.038,86.876
-64.054,84.038,86.876
-32.377,76.885,116.95
-32.377,76.885,116.95
2.5592,46.791,136.72
2.5592,46.791,136.72
-17.408,13.661,144.87
-17.408,13.661,144.87
-34.549,46.544,132.65
-34.549,46.544,132.65
-19.045,-19.983,146.44
-19.045,-19.983,146.44
18.102,-21.684,145.89
18.102,-21.684,145.89
16.467,-55.29,140.43
16.467,-55.29,140.43
-20.689,-53.968,140.87
-20.689,-53.968,140.87
4.7188,117.88,62.099
4.7188,117.88,62.099
4.5101,103.35,92.76
4.5101,103.35,92.76
37.519,111.63,59.949
37.519,111.63,59.949
67.565,95.994,54.925
67.565,95.994,54.925
70.492,77.722,84.948
70.492,77.722,84.948
38.031,97.565,90.623
38.031,97.565,90.623
3.7978,79.617,118.75
3.7978,79.617,118.75
39.307,73.576,115.87
39.307,73.576,115.87
39.145,43.034,131.64
39.145,43.034,131.64
19.433,12.172,144.23
19.433,12.172,144.23
53.291,7.5565,132.61
53.291,7.5565,132.61
81.479,8.166,108.99
81.479,8.166,108.99
81.738,-27.132,107.84
81.738,-27.132,107.84
52.701,-26.948,132.52
52.701,-26.948,132.52
88.698,68.481,48.596
88.698,68.481,48.596
101.27,35.292,45.994
101.27,35.292,45.994
90.527,43.79,79.709
90.527,43.79,79.709
72.071,43.206,109.74
72.071,43.206,109.74
99.079,8.0393,77.826
99.079,8.0393,77.826
106.82,1.8957,44.075
106.82,1.8957,44.075
106.11,-32.052,41.003
106.11,-32.052,41.003
99.487,-28.014,75.636
99.487,-28.014,75.636
102.4,33.999,11.639
102.4,33.999,11.639
105.72,19.473,-23.204
105.72,19.473,-23.204
107.4,-14.333,-27.195
107.4,-14.333,-27.195
107.15,0.84459,9.6436
107.15,0.84459,9.6436
-111.88,-22.274,8.9905
-111.88,-22.274,8.9905
-106.3,-55.417,7.4857
-106.3,-55.417,7.4857
-100.9,-70.328,-27.597
-100.9,-70.328,-27.597
-111.12,-37.876,-25.971
-111.12,-37.876,-25.971
-105.78,-55.076,41.276
-105.78,-55.076,41.276
-98.708,-54.031,74.866
-98.708,-54.031,74.866
-83.086,-86.837,73.256
-83.086,-86.837,73.256
-92.079,-85.868,39.396
-92.079,-85.868,39.396
-82.856,-98.53,-29.101
-82.856,-98.53,-29.101
-92.097,-86.128,5.6022
-92.097,-86.128,5.6022
-70.299,-111.72,4.3847
-70.299,-111.72,4.3847
-56.829,-119.49,-30.522
-56.829,-119.49,-30.522
-81.599,-54.294,105.26
-81.599,-54.294,105.26
-54.418,-55.736,128.05
-54.418,-55.736,128.05
-21.898,-83.795,125.77
-21.898,-83.795,125.77
-59.735,-89.443,104.26
-59.735,-89.443,104.26
-57.315,-111.42,71.949
-57.315,-111.42,71.949
-40.715,-127.68,37.284
-40.715,-127.68,37.284
-40.836,-127.72,3.1822
-40.836,-127.72,3.1822
-70.177,-111.37,38.296
-70.177,-111.37,38.296
-23.904,-108.46,101.11
-23.904,-108.46,101.11
13.329,-110.27,100.44
13.329,-110.27,100.44
10.46,-125.67,70.358
10.46,-125.67,70.358
-23.485,-124.1,70.868
-23.485,-124.1,70.868
-7.4059,-134.57,37.31
-7.4059,-134.57,37.31
-7.9392,-134.77,2.6953
-7.9392,-134.77,2.6953
8.6926,-132.96,-31.754
8.6926,-132.96,-31.754
-25.473,-131.38,-31.34
-25.473,-131.38,-31.34
49.265,-60.432,126.59
49.265,-60.432,126.59
75.88,-61.27,103.12
75.88,-61.27,103.12
50.932,-94.649,102.49
50.932,-94.649,102.49
14.438,-85.469,125.12
14.438,-85.469,125.12
45.433,-116.16,70.403
45.433,-116.16,70.403
57.329,-117.27,36.574
57.329,-117.27,36.574
25.373,-130.78,2.2872
25.373,-130.78,2.2872
26.179,-130.87,36.366
26.179,-130.87,36.366
92.015,-62.644,72.11
92.015,-62.644,72.11
97.951,-64.393,38.419
97.951,-64.393,38.419
81.419,-93.78,36.892
81.419,-93.78,36.892
73.382,-94.16,70.899
73.382,-94.16,70.899
56.102,-117.66,2.6791
56.102,-117.66,2.6791
80.391,-94.2,3.2054
80.391,-94.2,3.2054
68.896,-105.65,-31.287
68.896,-105.65,-31.287
41.018,-124.02,-31.993
41.018,-124.02,-31.993
105.96,-32.45,6.1127
105.96,-32.45,6.1127
102.82,-47.887,-28.793
102.82,-47.887,-28.793
89.61,-79.15,-30.162
89.61,-79.15,-30.162
97.419,-64.935,4.7201
97.419,-64.935,4.7201
